Chapter 5 External Auditors | Data Analytics in R
…
txt %>% 
  count(word, sort = TRUE) %>% 
  wordcloud2::wordcloud2()

library(widyr)

txt_pca <-  txt %>% 
  mutate(value = 1) %>% 
  widyr::widely_svd(word, name, word, nv = 6) 

txt_pca %>% 
  dplyr::filter(dimension == 1) %>% 
  arrange(desc(value))

> # A tibble: 262 x 3
>    word     dimension value
>    <chr>        <int> <dbl>
>  1 lanterns         1 0.172
>  2 opal             1 0.169
>  3 glass            1 0.168
>  4 med              1 0.163
>  5 white            1 0.160
>  6 brass            1 0.158
>  7 hpf              1 0.156
>  8 marble           1 0.155
>  9 satin            1 0.151
> 10 pendant          1 0.142
> # ... with 252 more rows
…
revenue %>% 
  group_by(month) %>% 
  arrange(desc(credit)) %>% 
  slice(c(1, n())) 

> # A tibble: 24 x 14
> # Groups:   month [12]
>    account subaccount type    date       num   name   memo    split debit credit
>    <chr>   <chr>      <chr>   <date>     <chr> <chr>  <chr>   <chr> <dbl>  <dbl>
>  1 Revenue Revenue    Invoice 2018-01-29 71124 Kern ~ Burnis~ Acco~     0 8.4 e3
>  2 Revenue Revenue    Invoice 2018-01-28 71072 Cole ~ Haloge~ Acco~     0 4.95e0
>  3 Revenue Revenue    Invoice 2018-02-01 71121 Kern ~ 18x8x1~ Acco~     0 1.98e3
>  4 Revenue Revenue    Invoice 2018-02-12 71088 Cole ~ Haloge~ Acco~     0 4.95e0
>  5 Revenue Revenue    Invoice 2018-03-28 71125 Kern ~ Cand. ~ Acco~     0 5.6 e3
>  6 Revenue Revenue    Invoice 2018-03-27 71060 Godwi~ Haloge~ Acco~     0 9.9 e0
>  7 Revenue Revenue    Invoice 2018-04-13 71126 Kern ~ Golden~ Acco~     0 1.26e4
>  8 Revenue Revenue    Invoice 2018-04-16 71087 Cole ~ Haloge~ Acco~     0 4.95e0
>  9 Revenue Revenue    Invoice 2018-05-22 71127 Kern ~ Domes,~ Acco~     0 6.75e3
> 10 Revenue Revenue    Invoice 2018-05-24 71086 Cole ~ Haloge~ Acco~     0 4.95e0
> # ... with 14 more rows, and 4 more variables: balance <dbl>, weekday <ord>,
> #   month <ord>, quarter <fct>
…
> # A tibble: 0 x 15
> # ... with 15 variables: account <chr>, subaccount <chr>, type <chr>,
> #   date <date>, num <chr>, name <chr>, memo <chr>, split <chr>, debit <dbl>,
> #   credit <dbl>, balance <dbl>, weekday <ord>, month <ord>, quarter <fct>,
> #   gap <dbl>

filter out duplicated JE numbers.

revenue %>% 
  count(num, sort = TRUE) %>% 
  add_count(n)                                                            

> # A tibble: 94 x 3
>    num       n    nn
>    <chr> <int> <int>
>  1 71072    17     5
>  2 71085    17     5
>  3 71086    17     5
>  4 71087    17     5
>  5 71088    17     5
>  6 71073    15    11
>  7 71074    15    11
>  8 71075    15    11
>  9 71076    15    11
> 10 71077    15    11
> # ... with 84 more rows

revenue %>% 
  group_by(num) %>% 
  dplyr::filter(n() == 17) 

> # A tibble: 85 x 14
> # Groups:   num [5]
>    account subaccount type    date       num   name   memo    split debit credit
>    <chr>   <chr>      <chr>   <date>     <chr> <chr>  <chr>   <chr> <dbl>  <dbl>
>  1 Revenue Revenue    Invoice 2018-01-28 71072 Cole ~ Die Ca~ Acco~     0  367. 
>  2 Revenue Revenue    Invoice 2018-01-28 71072 Cole ~ Tapest~ Acco~     0  243  
>  3 Revenue Revenue    Invoice 2018-01-28 71072 Cole ~ Pearl ~ Acco~     0  342  
>  4 Revenue Revenue    Invoice 2018-01-28 71072 Cole ~ Sunset~ Acco~     0  126  
>  5 Revenue Revenue    Invoice 2018-01-28 71072 Cole ~ Black ~ Acco~     0  113. 
>  6 Revenue Revenue    Invoice 2018-01-28 71072 Cole ~ Burnis~ Acco~     0  270  
>  7 Revenue Revenue    Invoice 2018-01-28 71072 Cole ~ Chestn~ Acco~     0  292. 
>  8 Revenue Revenue    Invoice 2018-01-28 71072 Cole ~ Pendan~ Acco~     0   22.5
>  9 Revenue Revenue    Invoice 2018-01-28 71072 Cole ~ Athena~ Acco~     0   81  
> 10 Revenue Revenue    Invoice 2018-01-28 71072 Cole ~ Cand. ~ Acco~     0   50.4
> # ... with 75 more rows, and 4 more variables: balance <dbl>, weekday <ord>,
> #   month <ord>, quarter <fct>

revenue$num[duplicated(revenue$num)] %>% head()

> [1] "71047" "71047" "71047" "71047" "71047" "71047"

filter JE numbers based on columns of date, name, and credit to perform Same same same/different (SSS/SSD) tests.

revenue %>% 
  group_by(num, date, name, credit) %>% 
  summarise(freq = n()) %>% 
  arrange(desc(freq))

> # A tibble: 817 x 5
> # Groups:   num, date, name [94]
>    num   date       name                                    credit  freq
>    <chr> <date>     <chr>                                    <dbl> <int>
>  1 71123 2018-11-29 Kern Lighting Warehouse:Store #13          0       3
>  2 71052 2018-02-27 Baker's Professional Lighting:Store #15  210       2
>  3 71064 2018-04-22 Godwin Lighting Depot:Store #404          75.6     2
>  4 71065 2018-03-26 Godwin Lighting Depot:Store #303          75.6     2
>  5 71066 2018-04-28 Godwin Lighting Depot:Store #909          75.6     2
>  6 71068 2018-05-10 Godwin Lighting Depot:Store #909          75.6     2
>  7 71069 2018-05-30 Godwin Lighting Depot:Store #1020         75.6     2
>  8 71070 2018-06-11 Godwin Lighting Depot:Store #303          75.6     2
>  9 71073 2018-08-31 Cole Home Builders:Phase 1 - Lot 5       270       2
> 10 71074 2018-08-24 Cole Home Builders:Phase 1 - Lot 5       270       2
> # ... with 807 more rows
…
filter out same amount that appears more than 20 times.

revenue %>% 
  group_by(credit) %>% 
  dplyr::filter(n() > 20)                                         

> # A tibble: 64 x 14
> # Groups:   credit [3]
>    account subaccount type    date       num   name   memo    split debit credit
>    <chr>   <chr>      <chr>   <date>     <chr> <chr>  <chr>   <chr> <dbl>  <dbl>
>  1 Revenue Revenue    Invoice 2018-01-28 71072 Cole ~ Fluore~ Acco~     0   13.5
>  2 Revenue Revenue    Invoice 2018-01-28 71072 Cole ~ Specia~ Acco~     0   19.8
>  3 Revenue Revenue    Invoice 2018-01-31 71059 Godwi~ Specia~ Acco~     0   19.8
>  4 Revenue Revenue    Invoice 2018-01-31 71059 Godwi~ Fluore~ Acco~     0   13.5
>  5 Revenue Revenue    Invoice 2018-02-12 71088 Cole ~ Fluore~ Acco~     0   13.5
>  6 Revenue Revenue    Invoice 2018-02-12 71088 Cole ~ Specia~ Acco~     0   19.8
>  7 Revenue Revenue    Invoice 2018-03-26 71065 Godwi~ Drop O~ Acco~     0   75.6
>  8 Revenue Revenue    Invoice 2018-03-26 71065 Godwi~ Cand. ~ Acco~     0   75.6
>  9 Revenue Revenue    Invoice 2018-03-26 71065 Godwi~ Fluore~ Acco~     0   13.5
> 10 Revenue Revenue    Invoice 2018-03-26 71065 Godwi~ Specia~ Acco~     0   19.8
> # ... with 54 more rows, and 4 more variables: balance <dbl>, weekday <ord>,
> #   month <ord>, quarter <fct>
…
getSuspects(bfd.cp, revenue, by = "absolute.diff", how.many = 1) %>% as_tibble()

> # A tibble: 29 x 14
>    account subaccount type    date       num   name    memo   split debit credit
>    <chr>   <chr>      <chr>   <date>     <chr> <chr>   <chr>  <chr> <dbl>  <dbl>
>  1 Revenue Revenue    Invoice 2018-03-26 71065 Godwin~ Drop ~ Acco~     0   75.6
>  2 Revenue Revenue    Invoice 2018-03-26 71065 Godwin~ Cand.~ Acco~     0   75.6
>  3 Revenue Revenue    Invoice 2018-04-22 71064 Godwin~ Drop ~ Acco~     0   75.6
>  4 Revenue Revenue    Invoice 2018-04-22 71064 Godwin~ Cand.~ Acco~     0   75.6
>  5 Revenue Revenue    Invoice 2018-04-28 71066 Godwin~ Drop ~ Acco~     0   75.6
>  6 Revenue Revenue    Invoice 2018-04-28 71066 Godwin~ Cand.~ Acco~     0   75.6
>  7 Revenue Revenue    Invoice 2018-04-28 71067 Dan A.~ Fluor~ Acco~     0   75  
>  8 Revenue Revenue    Invoice 2018-05-10 71068 Godwin~ Drop ~ Acco~     0   75.6
>  9 Revenue Revenue    Invoice 2018-05-10 71068 Godwin~ Cand.~ Acco~     0   75.6
> 10 Revenue Revenue    Invoice 2018-05-16 71095 Miscel~ Penda~ Acco~     0   75  
> # ... with 19 more rows, and 4 more variables: balance <dbl>, weekday <ord>,
> #   month <ord>, quarter <fct>

revenue %>% 
  dplyr::filter(credit >= 10) %>% 
  group_by(credit) %>% 
  summarise(freq = n()) %>% 
  arrange(desc(freq)) %>% 
  mutate(first_two = sapply(credit, function(x) substring(x, first = c(1), last = c(2)))) %>% 
  count(first_two, sort = TRUE)                                 

> # A tibble: 78 x 2
>    first_two     n
>    <chr>     <int>
>  1 12           12
>  2 13            9
>  3 11            7
>  4 18            7
>  5 19            7
>  6 10            6
>  7 21            6
>  8 22            6
>  9 28            6
> 10 14            5
> # ... with 68 more rows

5.4.4 Outlier

revenue[which(revenue$credit %in% c(boxplot.stats(revenue$credit)$out)), ]

> # A tibble: 105 x 14
>    account subaccount type    date       num   name   memo    split debit credit
>    <chr>   <chr>      <chr>   <date>     <chr> <chr>  <chr>   <chr> <dbl>  <dbl>
>  1 Revenue Revenue    Invoice 2018-01-14 71050 Godwi~ Pearl ~ Acco~     0   2375
>  2 Revenue Revenue    Invoice 2018-01-14 71050 Godwi~ Roman ~ Acco~     0    850
>  3 Revenue Revenue    Invoice 2018-01-14 71050 Godwi~ Tiffan~ Acco~     0   1020
>  4 Revenue Revenue    Invoice 2018-01-14 71050 Godwi~ River ~ Acco~     0   1800
>  5 Revenue Revenue    Invoice 2018-01-29 71124 Kern ~ Burnis~ Acco~     0   8400
>  6 Revenue Revenue    Invoice 2018-02-01 71121 Kern ~ 18x8x1~ Acco~     0   1320
>  7 Revenue Revenue    Invoice 2018-02-01 71121 Kern ~ 18x8x1~ Acco~     0   1980
>  8 Revenue Revenue    Invoice 2018-02-01 71121 Kern ~ Solid ~ Acco~     0   1260
>  9 Revenue Revenue    Invoice 2018-02-01 71121 Kern ~ White,~ Acco~     0    960
> 10 Revenue Revenue    Invoice 2018-02-10 71051 Cole ~ Golden~ Acco~     0   1890
> # ... with 95 more rows, and 4 more variables: balance <dbl>, weekday <ord>,
> #   month <ord>, quarter <fct>
…
> # A tibble: 96 x 14
>    account subaccount type    date       num   name   memo    split debit credit
>    <chr>   <chr>      <chr>   <date>     <chr> <chr>  <chr>   <chr> <dbl>  <dbl>
>  1 Revenue Revenue    Invoice 2018-01-14 71050 Godwi~ Pearl ~ Acco~     0   2375
>  2 Revenue Revenue    Invoice 2018-01-14 71050 Godwi~ Roman ~ Acco~     0    850
>  3 Revenue Revenue    Invoice 2018-01-14 71050 Godwi~ Tiffan~ Acco~     0   1020
>  4 Revenue Revenue    Invoice 2018-01-14 71050 Godwi~ River ~ Acco~     0   1800
>  5 Revenue Revenue    Invoice 2018-01-29 71124 Kern ~ Burnis~ Acco~     0   8400
>  6 Revenue Revenue    Invoice 2018-02-01 71121 Kern ~ 18x8x1~ Acco~     0   1320
>  7 Revenue Revenue    Invoice 2018-02-01 71121 Kern ~ 18x8x1~ Acco~     0   1980
>  8 Revenue Revenue    Invoice 2018-02-01 71121 Kern ~ Solid ~ Acco~     0   1260
>  9 Revenue Revenue    Invoice 2018-02-01 71121 Kern ~ White,~ Acco~     0    960
> 10 Revenue Revenue    Invoice 2018-02-10 71051 Cole ~ Golden~ Acco~     0   1890
> # ... with 86 more rows, and 4 more variables: balance <dbl>, weekday <ord>,
> #   month <ord>, quarter <fct>

revenue %>% dplyr::filter(credit > quantile(credit, prob = .95))

> # A tibble: 41 x 14
>    account subaccount type    date       num   name   memo    split debit credit
>    <chr>   <chr>      <chr>   <date>     <chr> <chr>  <chr>   <chr> <dbl>  <dbl>
>  1 Revenue Revenue    Invoice 2018-01-14 71050 Godwi~ Pearl ~ Acco~     0   2375
>  2 Revenue Revenue    Invoice 2018-01-29 71124 Kern ~ Burnis~ Acco~     0   8400
>  3 Revenue Revenue    Invoice 2018-03-28 71071 Dan A~ Domes,~ Acco~     0   4500
>  4 Revenue Revenue    Invoice 2018-03-28 71125 Kern ~ Vianne~ Acco~     0   2900
>  5 Revenue Revenue    Invoice 2018-03-28 71125 Kern ~ Cand. ~ Acco~     0   5600
>  6 Revenue Revenue    Invoice 2018-04-13 71126 Kern ~ Golden~ Acco~     0  12600
>  7 Revenue Revenue    Invoice 2018-04-28 71067 Dan A~ Bevele~ Acco~     0   2400
>  8 Revenue Revenue    Invoice 2018-04-28 71067 Dan A~ Flush ~ Acco~     0   2975
>  9 Revenue Revenue    Invoice 2018-05-22 71127 Kern ~ Domes,~ Acco~     0   6750
> 10 Revenue Revenue    Invoice 2018-06-10 71128 Kern ~ Fluore~ Acco~     0   4500
> # ... with 31 more rows, and 4 more variables: balance <dbl>, weekday <ord>,
> #   month <ord>, quarter <fct>

subset(revenue, 
       revenue$credit > (quantile(revenue$credit, .25) - 1.5*IQR(revenue$credit)) & 
       revenue$credit < (quantile(revenue$credit, .75) + 1.5*IQR(revenue$credit)))

> # A tibble: 742 x 14
>    account subaccount type    date       num   name   memo    split debit credit
>    <chr>   <chr>      <chr>   <date>     <chr> <chr>  <chr>   <chr> <dbl>  <dbl>
>  1 Revenue Revenue    Invoice 2018-01-06 71047 Baker~ Pearl ~ Acco~     0    570
>  2 Revenue Revenue    Invoice 2018-01-06 71047 Baker~ Black ~ Acco~     0     84
>  3 Revenue Revenue    Invoice 2018-01-06 71047 Baker~ Bevele~ Acco~     0    144
>  4 Revenue Revenue    Invoice 2018-01-06 71047 Baker~ Tiffan~ Acco~     0    510
>  5 Revenue Revenue    Invoice 2018-01-06 71047 Baker~ Burnis~ Acco~     0    600
>  6 Revenue Revenue    Invoice 2018-01-06 71047 Baker~ Specia~ Acco~     0     55
>  7 Revenue Revenue    Invoice 2018-01-06 71047 Baker~ Pendan~ Acco~     0     50
>  8 Revenue Revenue    Invoice 2018-01-06 71047 Baker~ Verona~ Acco~     0    300
>  9 Revenue Revenue    Invoice 2018-01-06 71047 Baker~ Haloge~ Acco~     0     12
> 10 Revenue Revenue    Invoice 2018-01-06 71047 Baker~ Cand. ~ Acco~     0     56
> # ... with 732 more rows, and 4 more variables: balance <dbl>, weekday <ord>,
> #   month <ord>, quarter <fct>

revenue[which(ecdf(revenue$credit)(revenue$credit) > 0.95), ]                       

> # A tibble: 44 x 14
>    account subaccount type    date       num   name   memo    split debit credit
>    <chr>   <chr>      <chr>   <date>     <chr> <chr>  <chr>   <chr> <dbl>  <dbl>
>  1 Revenue Revenue    Invoice 2018-01-14 71050 Godwi~ Pearl ~ Acco~     0   2375
>  2 Revenue Revenue    Invoice 2018-01-29 71124 Kern ~ Burnis~ Acco~     0   8400
>  3 Revenue Revenue    Invoice 2018-03-28 71071 Dan A~ Domes,~ Acco~     0   4500
>  4 Revenue Revenue    Invoice 2018-03-28 71125 Kern ~ Vianne~ Acco~     0   2900
>  5 Revenue Revenue    Invoice 2018-03-28 71125 Kern ~ Cand. ~ Acco~     0   5600
>  6 Revenue Revenue    Invoice 2018-04-13 71126 Kern ~ Golden~ Acco~     0  12600
>  7 Revenue Revenue    Invoice 2018-04-28 71067 Dan A~ Coloni~ Acco~     0   2100
>  8 Revenue Revenue    Invoice 2018-04-28 71067 Dan A~ Bevele~ Acco~     0   2400
>  9 Revenue Revenue    Invoice 2018-04-28 71067 Dan A~ Flush ~ Acco~     0   2975
> 10 Revenue Revenue    Invoice 2018-05-22 71127 Kern ~ Domes,~ Acco~     0   6750
> # ... with 34 more rows, and 4 more variables: balance <dbl>, weekday <ord>,
> #   month <ord>, quarter <fct>

revenue[which(abs(scale(revenue$credit)) > 1.96), ]                                 

> # A tibble: 33 x 14
>    account subaccount type    date       num   name   memo    split debit credit
>    <chr>   <chr>      <chr>   <date>     <chr> <chr>  <chr>   <chr> <dbl>  <dbl>
>  1 Revenue Revenue    Invoice 2018-01-29 71124 Kern ~ Burnis~ Acco~     0   8400
>  2 Revenue Revenue    Invoice 2018-03-28 71071 Dan A~ Domes,~ Acco~     0   4500
>  3 Revenue Revenue    Invoice 2018-03-28 71125 Kern ~ Vianne~ Acco~     0   2900
>  4 Revenue Revenue    Invoice 2018-03-28 71125 Kern ~ Cand. ~ Acco~     0   5600
>  5 Revenue Revenue    Invoice 2018-04-13 71126 Kern ~ Golden~ Acco~     0  12600
>  6 Revenue Revenue    Invoice 2018-04-28 71067 Dan A~ Flush ~ Acco~     0   2975
>  7 Revenue Revenue    Invoice 2018-05-22 71127 Kern ~ Domes,~ Acco~     0   6750
>  8 Revenue Revenue    Invoice 2018-06-10 71128 Kern ~ Fluore~ Acco~     0   4500
>  9 Revenue Revenue    Invoice 2018-07-13 71119 Kern ~ Golden~ Acco~     0   3150
> 10 Revenue Revenue    Invoice 2018-07-13 71119 Kern ~ Burnis~ Acco~     0   3000
> # ... with 23 more rows, and 4 more variables: balance <dbl>, weekday <ord>,
> #   month <ord>, quarter <fct>
…
5.4.5 Ratios

Remove any rows containing 0 in monthly financial statements, and then perform horizontal and vertical ratio analysis. The final result is present in a formatted table.

mth_fs[apply(mth_fs[-c(1:2)], 1, function(x) all(x != 0)), ] 

> # A tibble: 30 x 14
>    account    subaccount        Jan     Feb     Mar     Apr    May    Jun    Jul
>    <chr>      <chr>           <dbl>   <dbl>   <dbl>   <dbl>  <dbl>  <dbl>  <dbl>
>  1 Accounts ~ Accounts Pay~ -3.59e4 -45421  -21732. -23299  -3916. -6852. -4067.
>  2 Accounts ~ Accounts Rec~  2.24e4  10455.  16399.  16583. 21162. 26078. 38024.
>  3 Accumulat~ Accumulated ~ -7.69e1   -154.   -231.   -308.  -385.  -462.  -538.
>  4 Car/Truck~ Car Lease      5.63e2   1126    1689    2252   2815   3378   3941 
>  5 Car/Truck~ Insurance-Au~  1.2 e2    240     360     480    600    720    840 
>  6 Company C~ Company Chec~  2.14e4  25957.  44125.   7784. 35514. 76992. 42187.
>  7 Deborah W~ Deborah Wood~  1.05e4  22750   32750   44500  56500  67750  77750 
>  8 Depreciat~ Depreciation~  7.69e1    154.    231.    308.   385.   462.   538.
>  9 Direct La~ Wages - Ware~  8.1 e2   2430    4050    5670   7290   8910  10530 
> 10 Insurance  General Liab~  2.3 e2    460     690     920   1150   1380   1610 
> # ... with 20 more rows, and 5 more variables: Aug <dbl>, Sep <dbl>, Oct <dbl>,
> #   Nov <dbl>, Dec <dbl>

mth_fs %>% 
  rowwise() %>% 
  dplyr::filter(all(c_across(-c(account, subaccount)) != 0))

> # A tibble: 30 x 14
> # Rowwise: 
>    account    subaccount        Jan     Feb     Mar     Apr    May    Jun    Jul
>    <chr>      <chr>           <dbl>   <dbl>   <dbl>   <dbl>  <dbl>  <dbl>  <dbl>
>  1 Accounts ~ Accounts Pay~ -3.59e4 -45421  -21732. -23299  -3916. -6852. -4067.
>  2 Accounts ~ Accounts Rec~  2.24e4  10455.  16399.  16583. 21162. 26078. 38024.
>  3 Accumulat~ Accumulated ~ -7.69e1   -154.   -231.   -308.  -385.  -462.  -538.
>  4 Car/Truck~ Car Lease      5.63e2   1126    1689    2252   2815   3378   3941 
>  5 Car/Truck~ Insurance-Au~  1.2 e2    240     360     480    600    720    840 
>  6 Company C~ Company Chec~  2.14e4  25957.  44125.   7784. 35514. 76992. 42187.
>  7 Deborah W~ Deborah Wood~  1.05e4  22750   32750   44500  56500  67750  77750 
>  8 Depreciat~ Depreciation~  7.69e1    154.    231.    308.   385.   462.   538.
>  9 Direct La~ Wages - Ware~  8.1 e2   2430    4050    5670   7290   8910  10530 
> 10 Insurance  General Liab~  2.3 e2    460     690     920   1150   1380   1610 
> # ... with 20 more rows, and 5 more variables: Aug <dbl>, Sep <dbl>, Oct <dbl>,
> #   Nov <dbl>, Dec <dbl>
…
5.4.6 Cutomers

Identify Top 10 customers based on total sales amount.

revenue %>%
  count(name, wt = credit, sort = TRUE) 

> # A tibble: 54 x 2
>    name                                                 n
>    <chr>                                            <dbl>
>  1 Kern Lighting Warehouse:Store #13               37725 
>  2 Kern Lighting Warehouse:Store #01               34929 
>  3 Kern Lighting Warehouse:Store #34               34625.
>  4 Kern Lighting Warehouse:Store #45               30675 
>  5 Cole Home Builders:Phase 1 - Lot 5              25877.
>  6 Stern Commercial Contractor's:Walker Properties 21330 
>  7 Stern Commercial Contractor's:Tittle Properties 17433 
>  8 Thompson Lighting Stores:Store #15              14825 
>  9 Stern Commercial Contractor's:Wilson Suites     14355 
> 10 Cole Home Builders:Phase 2 - Lot 5              13973.
> # ... with 44 more rows
…
