Chapter 4 FP&A | Data Analytics in R
…
count(sales_df, status)

> # A tibble: 2 x 2
>   status      n
> * <chr>   <int>
> 1 Off      3090
> 2 On     152642

sales_df %>% 
  dplyr::filter(status == 'Off' & (employee_count > 0 | selling_area_size > 0))

> # A tibble: 3,090 x 27
>    sales_unit_price sales_quantity sales_amount sales_unit_cost total_cost
>               <dbl>          <dbl>        <dbl>           <dbl>      <dbl>
>  1             15.0            180       2698.             7.64     1375. 
>  2             25.0            360       8996.            12.7      4586. 
>  3            120.               4        480.            61.2       245. 
>  4            269                4       1076            137.        549. 
>  5             76.0              4        304.            38.7       155. 
>  6             16.9              4         67.6            8.62       34.5
>  7             76.0              4        304.            38.7       155. 
>  8             39.9              4        160.            20.3        81.4
>  9            110.               4        440.            56.1       224. 
> 10            270.               4       1080.           138.        550. 
> # ... with 3,080 more rows, and 22 more variables: return_quantity <dbl>,
> #   return_amount <dbl>, discount_quantity <dbl>, discount_amount <dbl>,
> #   discount_percent <dbl>, promotion_name <chr>, start_date <dttm>,
> #   end_date <dttm>, channel_name <chr>, store_type <chr>, store_name <chr>,
> #   status <chr>, employee_count <dbl>, selling_area_size <dbl>,
> #   continent_name <chr>, region_country_name <chr>, product_name <chr>,
> #   product_subcategory <chr>, product_category <chr>, manufacturer <chr>, ...
…
Reshape the data from a long format to a wide format. filter data based on the specified conditions and count a variable.

sales_df %>% 
  count(class_name, product_category, manufacturer, store_type) %>% 
  spread(store_type, n, fill = 0)

> # A tibble: 57 x 7
>    class_name product_category       manufacturer  Catalog Online Reseller Store
>    <chr>      <chr>                  <chr>           <dbl>  <dbl>    <dbl> <dbl>
>  1 Deluxe     Audio                  Contoso, Ltd       20     80       55   488
>  2 Deluxe     Audio                  Wide World I~      12     46       50   172
>  3 Deluxe     Cameras and camcorders A. Datum Cor~      66    230      173  1228
>  4 Deluxe     Cameras and camcorders Contoso, Ltd       37    133      114   540
>  5 Deluxe     Cameras and camcorders Fabrikam, In~      74    276      221  1185
>  6 Deluxe     Cell phones            Contoso, Ltd       71    243      203  1033
>  7 Deluxe     Cell phones            The Phone Co~     112    508      392  1933
>  8 Deluxe     Computers              Adventure Wo~      38    124      103   584
>  9 Deluxe     Computers              Contoso, Ltd       41    161      151   589
> 10 Deluxe     Computers              Proseware, I~      92    370      282  1790
> # ... with 47 more rows

sales_df %>% 
  dplyr::filter(region_country_name == 'United States') %>% 
  count(store_name)

> # A tibble: 198 x 2
>    store_name                      n
>  * <chr>                       <int>
>  1 Contoso Albany Store          280
>  2 Contoso Alexandria Store      266
>  3 Contoso Anchorage Store       244
>  4 Contoso Annapolis Store       271
>  5 Contoso Appleton Store        279
>  6 Contoso Arlington Store       258
>  7 Contoso Atlantic City Store   275
>  8 Contoso Attleboro Store       243
>  9 Contoso Aurora Store          282
> 10 Contoso Austin Store          255
> # ... with 188 more rows
…
summarize sales unit price of different manufacturer within a class name and product category.

summarize sales unit price by product name when class name is Deluxe.

sales_df %>% 
  group_by(cut = cut(sales_unit_price, breaks = c(0, 1, 100, 1000, 2000, 3000)), 
           class_name, product_category) %>% 
  summarise(total_sales_quantity = sum(sales_quantity), 
            total_sales_amount = sum(sales_amount), 
            cut_pct_sales_amount = round(total_sales_amount / sum(sales_df$sales_amount), 2), 
            .groups = 'drop') %>% 
  arrange(-cut_pct_sales_amount) 

> # A tibble: 41 x 6
>    cut           class_name product_category  total_sales_quan~ total_sales_amo~
>    <fct>         <chr>      <chr>                         <dbl>            <dbl>
>  1 (100,1e+03]   Regular    Computers                    304943       125813827.
>  2 (100,1e+03]   Regular    Cameras and camc~            249164       113427331.
>  3 (100,1e+03]   Regular    TV and Video                 154768        67684579.
>  4 (2e+03,3e+03] Deluxe     Computers                     16579        38894182.
>  5 (100,1e+03]   Regular    Cell phones                  126686        34144060.
>  6 (100,1e+03]   Economy    Computers                    118495        24821503.
>  7 (1e+03,2e+03] Deluxe     Cameras and camc~             16204        24913696.
>  8 (100,1e+03]   Deluxe     Cameras and camc~             33642        14400906.
>  9 (100,1e+03]   Economy    Cameras and camc~             71316        15073062.
> 10 (100,1e+03]   Deluxe     Cell phones                   40044        13470115.
> # ... with 31 more rows, and 1 more variable: cut_pct_sales_amount <dbl>

sales_df %>% 
  dplyr::filter(near(sales_unit_price, max(sales_unit_price), tol = sd(sales_unit_price)))

> # A tibble: 66 x 27
>    sales_unit_price sales_quantity sales_amount sales_unit_cost total_cost
>               <dbl>          <dbl>        <dbl>           <dbl>      <dbl>
>  1            2900.              9       24360.            961.      8647.
>  2            2900.             10       29000.            961.      9608.
>  3            2900.              6       17400.            961.      5765.
>  4            2900.              6       17400.            961.      5765.
>  5            2900.             20       58000.            961.     19216.
>  6            2900.              6       16820.            961.      5765.
>  7            2900.             10       29000.            961.      8647.
>  8            2900.              6       17110.            961.      5765.
>  9            2900.              6       16240.            961.      5765.
> 10            2900.             30       87000.            961.     27864.
> # ... with 56 more rows, and 22 more variables: return_quantity <dbl>,
> #   return_amount <dbl>, discount_quantity <dbl>, discount_amount <dbl>,
> #   discount_percent <dbl>, promotion_name <chr>, start_date <dttm>,
> #   end_date <dttm>, channel_name <chr>, store_type <chr>, store_name <chr>,
> #   status <chr>, employee_count <dbl>, selling_area_size <dbl>,
> #   continent_name <chr>, region_country_name <chr>, product_name <chr>,
> #   product_subcategory <chr>, product_category <chr>, manufacturer <chr>, ...

sales_df %>% 
  dplyr::filter(between(sales_unit_price, 0, 1))

> # A tibble: 318 x 27
>    sales_unit_price sales_quantity sales_amount sales_unit_cost total_cost
>               <dbl>          <dbl>        <dbl>           <dbl>      <dbl>
>  1             0.95             26        24.7             0.48      12.5 
>  2             0.95             13        12.4             0.48       6.24
>  3             0.95             18        17.1             0.48       8.64
>  4             0.95             18        17.1             0.48       8.64
>  5             0.95             18        17.1             0.48       8.64
>  6             0.95             24        21.1             0.48      11.5 
>  7             0.95             36        33.8             0.48      17.3 
>  8             0.95              9         8.55            0.48       3.84
>  9             0.95             24        22.8             0.48      11.5 
> 10             0.95             18        17.1             0.48       8.64
> # ... with 308 more rows, and 22 more variables: return_quantity <dbl>,
> #   return_amount <dbl>, discount_quantity <dbl>, discount_amount <dbl>,
> #   discount_percent <dbl>, promotion_name <chr>, start_date <dttm>,
> #   end_date <dttm>, channel_name <chr>, store_type <chr>, store_name <chr>,
> #   status <chr>, employee_count <dbl>, selling_area_size <dbl>,
> #   continent_name <chr>, region_country_name <chr>, product_name <chr>,
> #   product_subcategory <chr>, product_category <chr>, manufacturer <chr>, ...
…
> # A tibble: 3 x 2
>   new_number      n
> *      <dbl>  <int>
> 1          0 150875
> 2       1000   3349
> 3       2000   1508

sales_df %>% 
  group_by(class_name, product_category, manufacturer, store_type) %>% 
  summarise(across(c(sales_unit_price), tibble::lst(first, last, min, max, mean, median)))

> # A tibble: 228 x 10
> # Groups:   class_name, product_category, manufacturer [57]
>    class_name product_category       manufacturer   store_type sales_unit_price~
>    <chr>      <chr>                  <chr>          <chr>                  <dbl>
>  1 Deluxe     Audio                  Contoso, Ltd   Catalog                 299.
>  2 Deluxe     Audio                  Contoso, Ltd   Online                  299.
>  3 Deluxe     Audio                  Contoso, Ltd   Reseller                299.
>  4 Deluxe     Audio                  Contoso, Ltd   Store                   299.
>  5 Deluxe     Audio                  Wide World Im~ Catalog                 296 
>  6 Deluxe     Audio                  Wide World Im~ Online                  296 
>  7 Deluxe     Audio                  Wide World Im~ Reseller                296 
>  8 Deluxe     Audio                  Wide World Im~ Store                   296 
>  9 Deluxe     Cameras and camcorders A. Datum Corp~ Catalog                 290 
> 10 Deluxe     Cameras and camcorders A. Datum Corp~ Online                  290 
> # ... with 218 more rows, and 5 more variables: sales_unit_price_last <dbl>,
> #   sales_unit_price_min <dbl>, sales_unit_price_max <dbl>,
> #   sales_unit_price_mean <dbl>, sales_unit_price_median <dbl>

sales_df %>% 
  group_by(product_name) %>% 
  summarise(across(c(sales_unit_price), tibble::lst(min, max, mean, median)), 
            total_price_sales_amount = sum(sales_amount[sales_unit_price > median(sales_unit_price)]), 
            total_class_sales_amount = sum(sales_amount[class_name == 'Deluxe'])) 

> # A tibble: 1,689 x 7
>    product_name            sales_unit_price~ sales_unit_price~ sales_unit_price~
>  * <chr>                               <dbl>             <dbl>             <dbl>
>  1 A. Datum Advanced Digi~              188.              188.              188.
>  2 A. Datum Advanced Digi~              188.              188.              188.
>  3 A. Datum Advanced Digi~              188.              188.              188.
>  4 A. Datum Advanced Digi~              188.              188.              188.
>  5 A. Datum Advanced Digi~              188.              188.              188.
>  6 A. Datum Advanced Digi~              188.              188.              188.
>  7 A. Datum Advanced Digi~              188.              188.              188.
>  8 A. Datum All in One Di~              188               188               188 
>  9 A. Datum All in One Di~              188               188               188 
> 10 A. Datum All in One Di~              188               188               188 
> # ... with 1,679 more rows, and 3 more variables:
> #   sales_unit_price_median <dbl>, total_price_sales_amount <dbl>,
> #   total_class_sales_amount <dbl>

sales_df %>% 
  dplyr::filter(class_name == "Deluxe", 
                product_category == "Cameras and camcorders", 
                manufacturer == "Fabrikam, Inc.", 
                store_type == 'Store') 

> # A tibble: 1,185 x 27
>    sales_unit_price sales_quantity sales_amount sales_unit_cost total_cost
>               <dbl>          <dbl>        <dbl>           <dbl>      <dbl>
>  1              657             13         8541            218.      2830.
>  2              645              8         5160            214.      1710.
>  3              657              8         5256            218.      1741.
>  4              657              8         5256            218.      1741.
>  5              645              8         5160            214.      1710.
>  6              657             13         8541            218.      2830.
>  7             1560              8        12480            517.      4135.
>  8             1560              8        12480            517.      4135.
>  9              645              8         4773            214.      1710.
> 10              645              8         4773            214.      1710.
> # ... with 1,175 more rows, and 22 more variables: return_quantity <dbl>,
> #   return_amount <dbl>, discount_quantity <dbl>, discount_amount <dbl>,
> #   discount_percent <dbl>, promotion_name <chr>, start_date <dttm>,
> #   end_date <dttm>, channel_name <chr>, store_type <chr>, store_name <chr>,
> #   status <chr>, employee_count <dbl>, selling_area_size <dbl>,
> #   continent_name <chr>, region_country_name <chr>, product_name <chr>,
> #   product_subcategory <chr>, product_category <chr>, manufacturer <chr>, ...
…
Top 3 sales amount of product name from each product category.

summarize the whole dataset based on class name, product category, manufacturer, store type.

sales_df %>% 
  dplyr::filter(discount_quantity > 0, return_quantity > 0) %>% 
  mutate(pm_pct = (sales_unit_price - sales_unit_cost) / sales_unit_price) %>% 
  group_by(product_name) %>% 
  summarise(across(c(discount_quantity, discount_amount, return_quantity, return_amount, 
                     sales_quantity, sales_amount), sum), 
            discount_amount_pct = discount_amount / sales_amount, 
            return_amount_pct = return_amount / sales_amount, 
            avg_pm_pct = mean(pm_pct)) 

> # A tibble: 1,680 x 10
>    product_name   discount_quanti~ discount_amount return_quantity return_amount
>  * <chr>                     <dbl>           <dbl>           <dbl>         <dbl>
>  1 A. Datum Adva~               52           1480.              19         3582.
>  2 A. Datum Adva~               72           1823.              26         4901 
>  3 A. Datum Adva~               62           1638.              22         4147 
>  4 A. Datum Adva~               72           1840.              25         4712.
>  5 A. Datum Adva~               52           1529.              21         3958.
>  6 A. Datum Adva~               87           2132.              27         5090.
>  7 A. Datum Adva~               81           1942.              27         5090.
>  8 A. Datum All ~               12            226.               4          752 
>  9 A. Datum All ~               29            726.              16         3008 
> 10 A. Datum All ~               39            996.              14         2632 
> # ... with 1,670 more rows, and 5 more variables: sales_quantity <dbl>,
> #   sales_amount <dbl>, discount_amount_pct <dbl>, return_amount_pct <dbl>,
> #   avg_pm_pct <dbl>
…
sales_df %>% 
  mutate(pm_pct = (sales_unit_price - sales_unit_cost) / sales_unit_price) %>% 
  group_by(class_name, product_category, manufacturer, store_type) %>% 
  summarise(across(c(sales_unit_price, pm_pct), tibble::lst(min, max)), 
            across(c(sales_quantity, sales_amount), tibble::lst(sum)), 
            no_of_store = n_distinct(store_name)) 

> # A tibble: 228 x 11
> # Groups:   class_name, product_category, manufacturer [57]
>    class_name product_category       manufacturer   store_type sales_unit_price~
>    <chr>      <chr>                  <chr>          <chr>                  <dbl>
>  1 Deluxe     Audio                  Contoso, Ltd   Catalog                 299.
>  2 Deluxe     Audio                  Contoso, Ltd   Online                  299.
>  3 Deluxe     Audio                  Contoso, Ltd   Reseller                299.
>  4 Deluxe     Audio                  Contoso, Ltd   Store                   299.
>  5 Deluxe     Audio                  Wide World Im~ Catalog                 250.
>  6 Deluxe     Audio                  Wide World Im~ Online                  250.
>  7 Deluxe     Audio                  Wide World Im~ Reseller                250.
>  8 Deluxe     Audio                  Wide World Im~ Store                   250.
>  9 Deluxe     Cameras and camcorders A. Datum Corp~ Catalog                 281 
> 10 Deluxe     Cameras and camcorders A. Datum Corp~ Online                  281 
> # ... with 218 more rows, and 6 more variables: sales_unit_price_max <dbl>,
> #   pm_pct_min <dbl>, pm_pct_max <dbl>, sales_quantity_sum <dbl>,
> #   sales_amount_sum <dbl>, no_of_store <int>

sales_df %>% 
  nest(data = -c(class_name, product_category, manufacturer, store_type)) %>% 
  mutate(new = map(data, ~.x[['sales_unit_price']][20])) %>% 
  unnest(new)

> # A tibble: 228 x 6
>    store_type product_category       manufacturer         class_name data    new
>    <chr>      <chr>                  <chr>                <chr>      <lis> <dbl>
>  1 Store      Cell phones            The Phone Company    Regular    <tbl~ 301  
>  2 Store      Cell phones            Contoso, Ltd         Regular    <tbl~  36.0
>  3 Store      Computers              Proseware, Inc.      Regular    <tbl~ 160  
>  4 Store      TV and Video           Adventure Works      Regular    <tbl~ 470. 
>  5 Store      Computers              Contoso, Ltd         Regular    <tbl~ 499  
>  6 Store      Cameras and camcorders Contoso, Ltd         Economy    <tbl~  40.0
>  7 Store      Computers              Wide World Importers Economy    <tbl~ 129  
>  8 Store      Cameras and camcorders Fabrikam, Inc.       Regular    <tbl~ 334  
>  9 Store      Cameras and camcorders A. Datum Corporation Regular    <tbl~ 338  
> 10 Store      Cell phones            Contoso, Ltd         Economy    <tbl~  15.0
> # ... with 218 more rows
…
