Chapter 2 R basics | Data Analytics in R
…
2.2 Help

Names of all exported functions available in a installed package can be displayed. If any of names is strange to you, run ? or help to read documentation.

tibble(f = ls(getNamespace("base"))) %>% 
  dplyr::filter(str_detect(f, "^f")) 

> # A tibble: 53 x 1
>    f          
>    <chr>      
>  1 factor     
>  2 factorial  
>  3 fifo       
>  4 file       
>  5 file.access
>  6 file.append
>  7 file.choose
>  8 file.copy  
>  9 file.create
> 10 file.exists
> # ... with 43 more rows
…
